; Engine configuration file.
; It's best edited using the editor UI and not directly,
; since the parameters that go here are not all obvious.
;
; Format:
;   [section] ; section goes between []
;   param=value ; assign values to parameters

config_version=5

[application]

config/name="Sound Manager Demo"
run/main_scene="res://Demo/Demo.tscn"
config/features=PackedStringArray("4.3")

[autoload]

SoundManager="*res://addons/sound_manager/module/SoundManager.tscn"

[display]

window/size/viewport_width=1920
window/size/viewport_height=1080

[editor_plugins]

enabled=PackedStringArray("res://addons/sound_manager/plugin.cfg")

[rendering]

environment/defaults/default_environment="res://default_env.tres"
